  "initial_vesting_balances": [{
      "owner": "CVHYhQcrjVg5kBzCoeeD38eQdncCC5pBgee",
      "asset_symbol": "CVT",
      "amount": 50000000000,
      "begin_timestamp": "2014-11-06T00:00:00",
      "vesting_duration_seconds": 63072000,
      "begin_balance": 50000000000
    },{
      "owner": "CVPgQZg5929ht1NBdEvsGKqoQ7buRu3nKf4",
      "asset_symbol": "CVT",
      "amount": 50000000000,
      "begin_timestamp": "2014-11-06T00:00:00",
      "vesting_duration_seconds": 63072000,
      "begin_balance": 50000000000
    },{
      "owner": "CVC9zrLXSAPUQaVmQPk1S9dMqSzT7jPqYU7",
      "asset_symbol": "CVT",
      "amount": 50000000000,
      "begin_timestamp": "2014-11-06T00:00:00",
      "vesting_duration_seconds": 63072000,
      "begin_balance": 50000000000
    },{
      "owner": "CV93aQPtbbkXwaSjtHaREsNVcCvbfHo93aZ",
      "asset_symbol": "CVT",
      "amount": 50000000000,
      "begin_timestamp": "2014-11-06T00:00:00",
      "vesting_duration_seconds": 63072000,
      "begin_balance": 50000000000
    },{
      "owner": "CV6RM4UfsYFPDuhbmgkvDS9ip8Kvqundvyk",
      "asset_symbol": "CVT",
      "amount": 50000000000,
      "begin_timestamp": "2014-11-06T00:00:00",
      "vesting_duration_seconds": 63072000,
      "begin_balance": 50000000000
    },{
      "owner": "CVNVkZXdqWWSzqHVxvfetMe347is6kEkC4K",
      "asset_symbol": "CVT",
      "amount": 50000000000,
      "begin_timestamp": "2014-11-06T00:00:00",
      "vesting_duration_seconds": 63072000,
      "begin_balance": 50000000000
    },{
      "owner": "CV5GHzWZ64Luoajqsz6JGjTKVMgWYkGV9SQ",
      "asset_symbol": "CVT",
      "amount": 50000000000,
      "begin_timestamp": "2014-11-06T00:00:00",
      "vesting_duration_seconds": 63072000,
      "begin_balance": 50000000000
    },{
      "owner": "CVDCVRFez92bW9doRLjnFCKLJnpM58mgmMb",
      "asset_symbol": "CVT",
      "amount": 50000000000,
      "begin_timestamp": "2014-11-06T00:00:00",
      "vesting_duration_seconds": 63072000,
      "begin_balance": 50000000000
    },{
      "owner": "CV5CCdX3JYLBptYMuCjbsezqGYzN9vG9JCu",
      "asset_symbol": "CVT",
      "amount": 50000000000,
      "begin_timestamp": "2014-11-06T00:00:00",
      "vesting_duration_seconds": 63072000,
      "begin_balance": 50000000000
    },{
      "owner": "CVEQ3yQdr3EMDL2eRqGiceMCpoanaW16Puw",
      "asset_symbol": "CVT",
      "amount": 50000000000,
      "begin_timestamp": "2014-11-06T00:00:00",
      "vesting_duration_seconds": 63072000,
      "begin_balance": 50000000000
    },{
