{
  "permission_map" :
  [
    [
      "*",
      {
        "password_hash_b64" : "*",
        "password_salt_b64" : "*",
        "allowed_apis" : ["database_api", "network_broadcast_api", "history_api", "network_peer_api"]
      }
    ]
  ]
}

